{
  "tracks": {
    "href": "https://api.spotify.com/v1/search?query=Telephone&type=track&offset=0&limit=5",
    "items": [
      {
        "album": {
          "album_type": "album",
          "artists": [
            {
              "external_urls": {
                "spotify": "https://open.spotify.com/artist/1HY2Jd0NmPuamShAr6KMms"
              },
              "href": "https://api.spotify.com/v1/artists/1HY2Jd0NmPuamShAr6KMms",
              "id": "1HY2Jd0NmPuamShAr6KMms",
              "name": "Lady Gaga",
              "type": "artist",
              "uri": "spotify:artist:1HY2Jd0NmPuamShAr6KMms"
            }
          ],
          "available_markets": [
            "AD",
            "AE",
            "AR",
            "AT",
            "AU",
            "BE",
            "BG",
            "BH",
            "BO",
            "BR",
            "CA",
            "CH",
            "CL",
            "CO",
            "CR",
            "CY",
            "CZ",
            "DK",
            "DO",
            "DZ",
            "EC",
            "EE",
            "EG",
            "ES",
            "FI",
            "FR",
            "GR",
            "GT",
            "HK",
            "HN",
            "HU",
            "ID",
            "IE",
            "IL",
            "IS",
            "IT",
            "JO",
            "JP",
            "KW",
            "LB",
            "LI",
            "LT",
            "LU",
            "LV",
            "MA",
            "MC",
            "MT",
            "MY",
            "NI",
            "NL",
            "NO",
            "NZ",
            "OM",
            "PA",
            "PE",
            "PH",
            "PL",
            "PS",
            "PT",
            "PY",
            "QA",
            "RO",
            "SA",
            "SG",
            "SK",
            "SV",
            "TH",
            "TN",
            "TR",
            "TW",
            "US",
            "UY",
            "VN",
            "ZA"
          ],
          "external_urls": {
            "spotify": "https://open.spotify.com/album/2bsK9FeKzU0jNKA6XYFP7E"
          },
          "href": "https://api.spotify.com/v1/albums/2bsK9FeKzU0jNKA6XYFP7E",
          "id": "2bsK9FeKzU0jNKA6XYFP7E",
          "images": [
            {
              "height": 640,
              "url": "https://i.scdn.co/image/09f74537afef05a012f912a6531cb7707cdf166e",
              "width": 640
            },
            {
              "height": 300,
              "url": "https://i.scdn.co/image/10b76e6b992fd32846c6de9f7416f682f83ad6db",
              "width": 300
            },
            {
              "height": 64,
              "url": "https://i.scdn.co/image/d960d5cb9c83c4836eb39184ee7c8a00952e7b0d",
              "width": 64
            }
          ],
          "name": "The Fame Monster",
          "release_date": "2009-01-01",
          "release_date_precision": "day",
          "total_tracks": 8,
          "type": "album",
          "uri": "spotify:album:2bsK9FeKzU0jNKA6XYFP7E"
        },
        "artists": [
          {
            "external_urls": {
              "spotify": "https://open.spotify.com/artist/1HY2Jd0NmPuamShAr6KMms"
            },
            "href": "https://api.spotify.com/v1/artists/1HY2Jd0NmPuamShAr6KMms",
            "id": "1HY2Jd0NmPuamShAr6KMms",
            "name": "Lady Gaga",
            "type": "artist",
            "uri": "spotify:artist:1HY2Jd0NmPuamShAr6KMms"
          },
          {
            "external_urls": {
              "spotify": "https://open.spotify.com/artist/6vWDO969PvNqNYHIOW5v0m"
            },
            "href": "https://api.spotify.com/v1/artists/6vWDO969PvNqNYHIOW5v0m",
            "id": "6vWDO969PvNqNYHIOW5v0m",
            "name": "Beyoncé",
            "type": "artist",
            "uri": "spotify:artist:6vWDO969PvNqNYHIOW5v0m"
          }
        ],
        "available_markets": [
          "AD",
          "AE",
          "AR",
          "AT",
          "AU",
          "BE",
          "BG",
          "BH",
          "BO",
          "BR",
          "CA",
          "CH",
          "CL",
          "CO",
          "CR",
          "CY",
          "CZ",
          "DK",
          "DO",
          "DZ",
          "EC",
          "EE",
          "EG",
          "ES",
          "FI",
          "FR",
          "GR",
          "GT",
          "HK",
          "HN",
          "HU",
          "ID",
          "IE",
          "IL",
          "IS",
          "IT",
          "JO",
          "JP",
          "KW",
          "LB",
          "LI",
          "LT",
          "LU",
          "LV",
          "MA",
          "MC",
          "MT",
          "MY",
          "NI",
          "NL",
          "NO",
          "NZ",
          "OM",
          "PA",
          "PE",
          "PH",
          "PL",
          "PS",
          "PT",
          "PY",
          "QA",
          "RO",
          "SA",
          "SG",
          "SK",
          "SV",
          "TH",
          "TN",
          "TR",
          "TW",
          "US",
          "UY",
          "VN",
          "ZA"
        ],
        "disc_number": 1,
        "duration_ms": 220626,
        "explicit": false,
        "external_ids": {
          "isrc": "USUM70905541"
        },
        "external_urls": {
          "spotify": "https://open.spotify.com/track/1IaYWv32nFFMdljBIjMY5T"
        },
        "href": "https://api.spotify.com/v1/tracks/1IaYWv32nFFMdljBIjMY5T",
        "id": "1IaYWv32nFFMdljBIjMY5T",
        "is_local": false,
        "name": "Telephone",
        "popularity": 71,
        "preview_url": null,
        "track_number": 6,
        "type": "track",
        "uri": "spotify:track:1IaYWv32nFFMdljBIjMY5T"
      },
      {
        "album": {
          "album_type": "album",
          "artists": [
            {
              "external_urls": {
                "spotify": "https://open.spotify.com/artist/7yO4IdJjCEPz7YgZMe25iS"
              },
              "href": "https://api.spotify.com/v1/artists/7yO4IdJjCEPz7YgZMe25iS",
              "id": "7yO4IdJjCEPz7YgZMe25iS",
              "name": "A$AP Mob",
              "type": "artist",
              "uri": "spotify:artist:7yO4IdJjCEPz7YgZMe25iS"
            }
          ],
          "available_markets": [
            "AD",
            "AE",
            "AR",
            "AT",
            "AU",
            "BE",
            "BG",
            "BH",
            "BO",
            "BR",
            "CA",
            "CH",
            "CL",
            "CO",
            "CR",
            "CY",
            "CZ",
            "DE",
            "DK",
            "DO",
            "DZ",
            "EC",
            "EE",
            "EG",
            "ES",
            "FI",
            "FR",
            "GB",
            "GR",
            "GT",
            "HK",
            "HN",
            "HU",
            "ID",
            "IE",
            "IL",
            "IS",
            "IT",
            "JO",
            "JP",
            "KW",
            "LB",
            "LI",
            "LT",
            "LU",
            "LV",
            "MA",
            "MC",
            "MT",
            "MX",
            "MY",
            "NI",
            "NL",
            "NO",
            "NZ",
            "OM",
            "PA",
            "PE",
            "PH",
            "PL",
            "PS",
            "PT",
            "PY",
            "QA",
            "RO",
            "SA",
            "SE",
            "SG",
            "SK",
            "SV",
            "TH",
            "TN",
            "TR",
            "TW",
            "US",
            "UY",
            "VN",
            "ZA"
          ],
          "external_urls": {
            "spotify": "https://open.spotify.com/album/3RaACfwYTY9uiDy3VSWLLc"
          },
          "href": "https://api.spotify.com/v1/albums/3RaACfwYTY9uiDy3VSWLLc",
          "id": "3RaACfwYTY9uiDy3VSWLLc",
          "images": [
            {
              "height": 640,
              "url": "https://i.scdn.co/image/e3a58ff90033a7ead7b9a918b137eedc06da3f4b",
              "width": 640
            },
            {
              "height": 300,
              "url": "https://i.scdn.co/image/da255217c614b8cca1a32a018c38395b00444356",
              "width": 300
            },
            {
              "height": 64,
              "url": "https://i.scdn.co/image/d9a2d2df83ea0b5af6442bb3ba32e8e7a6bb1f3c",
              "width": 64
            }
          ],
          "name": "Cozy Tapes: Vol. 1 Friends -",
          "release_date": "2016-10-31",
          "release_date_precision": "day",
          "total_tracks": 12,
          "type": "album",
          "uri": "spotify:album:3RaACfwYTY9uiDy3VSWLLc"
        },
        "artists": [
          {
            "external_urls": {
              "spotify": "https://open.spotify.com/artist/7yO4IdJjCEPz7YgZMe25iS"
            },
            "href": "https://api.spotify.com/v1/artists/7yO4IdJjCEPz7YgZMe25iS",
            "id": "7yO4IdJjCEPz7YgZMe25iS",
            "name": "A$AP Mob",
            "type": "artist",
            "uri": "spotify:artist:7yO4IdJjCEPz7YgZMe25iS"
          },
          {
            "external_urls": {
              "spotify": "https://open.spotify.com/artist/13ubrt8QOOCPljQ2FL1Kca"
            },
            "href": "https://api.spotify.com/v1/artists/13ubrt8QOOCPljQ2FL1Kca",
            "id": "13ubrt8QOOCPljQ2FL1Kca",
            "name": "A$AP Rocky",
            "type": "artist",
            "uri": "spotify:artist:13ubrt8QOOCPljQ2FL1Kca"
          },
          {
            "external_urls": {
              "spotify": "https://open.spotify.com/artist/4V8LLVI7PbaPR0K2TGSxFF"
            },
            "href": "https://api.spotify.com/v1/artists/4V8LLVI7PbaPR0K2TGSxFF",
            "id": "4V8LLVI7PbaPR0K2TGSxFF",
            "name": "Tyler, The Creator",
            "type": "artist",
            "uri": "spotify:artist:4V8LLVI7PbaPR0K2TGSxFF"
          },
          {
            "external_urls": {
              "spotify": "https://open.spotify.com/artist/699OTQXzgjhIYAHMy9RyPD"
            },
            "href": "https://api.spotify.com/v1/artists/699OTQXzgjhIYAHMy9RyPD",
            "id": "699OTQXzgjhIYAHMy9RyPD",
            "name": "Playboi Carti",
            "type": "artist",
            "uri": "spotify:artist:699OTQXzgjhIYAHMy9RyPD"
          },
          {
            "external_urls": {
              "spotify": "https://open.spotify.com/artist/2TD63ASEB2JcYY3C4KWJjz"
            },
            "href": "https://api.spotify.com/v1/artists/2TD63ASEB2JcYY3C4KWJjz",
            "id": "2TD63ASEB2JcYY3C4KWJjz",
            "name": "Yung Gleesh",
            "type": "artist",
            "uri": "spotify:artist:2TD63ASEB2JcYY3C4KWJjz"
          }
        ],
        "available_markets": [
          "AD",
          "AE",
          "AR",
          "AT",
          "AU",
          "BE",
          "BG",
          "BH",
          "BO",
          "BR",
          "CA",
          "CH",
          "CL",
          "CO",
          "CR",
          "CY",
          "CZ",
          "DE",
          "DK",
          "DO",
          "DZ",
          "EC",
          "EE",
          "EG",
          "ES",
          "FI",
          "FR",
          "GB",
          "GR",
          "GT",
          "HK",
          "HN",
          "HU",
          "ID",
          "IE",
          "IL",
          "IS",
          "IT",
          "JO",
          "JP",
          "KW",
          "LB",
          "LI",
          "LT",
          "LU",
          "LV",
          "MA",
          "MC",
          "MT",
          "MX",
          "MY",
          "NI",
          "NL",
          "NO",
          "NZ",
          "OM",
          "PA",
          "PE",
          "PH",
          "PL",
          "PS",
          "PT",
          "PY",
          "QA",
          "RO",
          "SA",
          "SE",
          "SG",
          "SK",
          "SV",
          "TH",
          "TN",
          "TR",
          "TW",
          "US",
          "UY",
          "VN",
          "ZA"
        ],
        "disc_number": 1,
        "duration_ms": 230920,
        "explicit": true,
        "external_ids": {
          "isrc": "USRC11602562"
        },
        "external_urls": {
          "spotify": "https://open.spotify.com/track/5VnpYqIzm02X9gOhVElQo3"
        },
        "href": "https://api.spotify.com/v1/tracks/5VnpYqIzm02X9gOhVElQo3",
        "id": "5VnpYqIzm02X9gOhVElQo3",
        "is_local": false,
        "name": "Telephone Calls",
        "popularity": 61,
        "preview_url": "https://p.scdn.co/mp3-preview/fae674d70bda38c528c12f7fa311ec84e74ed990?cid=a9f31b5d964247a8a2b5324a6c013e72",
        "track_number": 12,
        "type": "track",
        "uri": "spotify:track:5VnpYqIzm02X9gOhVElQo3"
      },
      {
        "album": {
          "album_type": "album",
          "artists": [
            {
              "external_urls": {
                "spotify": "https://open.spotify.com/artist/7jefIIksOi1EazgRTfW2Pk"
              },
              "href": "https://api.spotify.com/v1/artists/7jefIIksOi1EazgRTfW2Pk",
              "id": "7jefIIksOi1EazgRTfW2Pk",
              "name": "Electric Light Orchestra",
              "type": "artist",
              "uri": "spotify:artist:7jefIIksOi1EazgRTfW2Pk"
            }
          ],
          "available_markets": [
            "AD",
            "AE",
            "AR",
            "AT",
            "AU",
            "BE",
            "BG",
            "BH",
            "BO",
            "BR",
            "CA",
            "CH",
            "CL",
            "CO",
            "CR",
            "CY",
            "CZ",
            "DE",
            "DK",
            "DO",
            "DZ",
            "EC",
            "EE",
            "EG",
            "ES",
            "FI",
            "FR",
            "GB",
            "GR",
            "GT",
            "HK",
            "HN",
            "HU",
            "ID",
            "IE",
            "IL",
            "IS",
            "IT",
            "JO",
            "JP",
            "KW",
            "LB",
            "LI",
            "LT",
            "LU",
            "LV",
            "MA",
            "MC",
            "MT",
            "MX",
            "MY",
            "NI",
            "NL",
            "NO",
            "NZ",
            "OM",
            "PA",
            "PE",
            "PH",
            "PL",
            "PS",
            "PT",
            "PY",
            "QA",
            "RO",
            "SA",
            "SE",
            "SG",
            "SK",
            "SV",
            "TH",
            "TN",
            "TR",
            "TW",
            "US",
            "UY",
            "VN",
            "ZA"
          ],
          "external_urls": {
            "spotify": "https://open.spotify.com/album/7a35UzxXYuKQGMGImyB0Un"
          },
          "href": "https://api.spotify.com/v1/albums/7a35UzxXYuKQGMGImyB0Un",
          "id": "7a35UzxXYuKQGMGImyB0Un",
          "images": [
            {
              "height": 640,
              "url": "https://i.scdn.co/image/07a2a641b00e82f497255c972308801c1efac666",
              "width": 640
            },
            {
              "height": 300,
              "url": "https://i.scdn.co/image/a2c9d248837fb858bda8388b9c612ca181d04d4e",
              "width": 300
            },
            {
              "height": 64,
              "url": "https://i.scdn.co/image/a4d5dffa7fe365ecf1532d9655b1098182956610",
              "width": 64
            }
          ],
          "name": "A New World Record",
          "release_date": "1976",
          "release_date_precision": "year",
          "total_tracks": 9,
          "type": "album",
          "uri": "spotify:album:7a35UzxXYuKQGMGImyB0Un"
        },
        "artists": [
          {
            "external_urls": {
              "spotify": "https://open.spotify.com/artist/7jefIIksOi1EazgRTfW2Pk"
            },
            "href": "https://api.spotify.com/v1/artists/7jefIIksOi1EazgRTfW2Pk",
            "id": "7jefIIksOi1EazgRTfW2Pk",
            "name": "Electric Light Orchestra",
            "type": "artist",
            "uri": "spotify:artist:7jefIIksOi1EazgRTfW2Pk"
          }
        ],
        "available_markets": [
          "AD",
          "AE",
          "AR",
          "AT",
          "AU",
          "BE",
          "BG",
          "BH",
          "BO",
          "BR",
          "CA",
          "CH",
          "CL",
          "CO",
          "CR",
          "CY",
          "CZ",
          "DE",
          "DK",
          "DO",
          "DZ",
          "EC",
          "EE",
          "EG",
          "ES",
          "FI",
          "FR",
          "GB",
          "GR",
          "GT",
          "HK",
          "HN",
          "HU",
          "ID",
          "IE",
          "IL",
          "IS",
          "IT",
          "JO",
          "JP",
          "KW",
          "LB",
          "LI",
          "LT",
          "LU",
          "LV",
          "MA",
          "MC",
          "MT",
          "MX",
          "MY",
          "NI",
          "NL",
          "NO",
          "NZ",
          "OM",
          "PA",
          "PE",
          "PH",
          "PL",
          "PS",
          "PT",
          "PY",
          "QA",
          "RO",
          "SA",
          "SE",
          "SG",
          "SK",
          "SV",
          "TH",
          "TN",
          "TR",
          "TW",
          "US",
          "UY",
          "VN",
          "ZA"
        ],
        "disc_number": 1,
        "duration_ms": 280360,
        "explicit": false,
        "external_ids": {
          "isrc": "USSM18600411"
        },
        "external_urls": {
          "spotify": "https://open.spotify.com/track/3SPcBPzvbmWLl8NU5efx4W"
        },
        "href": "https://api.spotify.com/v1/tracks/3SPcBPzvbmWLl8NU5efx4W",
        "id": "3SPcBPzvbmWLl8NU5efx4W",
        "is_local": false,
        "name": "Telephone Line",
        "popularity": 59,
        "preview_url": "https://p.scdn.co/mp3-preview/faddcf48afa90384434c5e9b508f7ccecb4edf38?cid=a9f31b5d964247a8a2b5324a6c013e72",
        "track_number": 2,
        "type": "track",
        "uri": "spotify:track:3SPcBPzvbmWLl8NU5efx4W"
      },
      {
        "album": {
          "album_type": "album",
          "artists": [
            {
              "external_urls": {
                "spotify": "https://open.spotify.com/artist/1HY2Jd0NmPuamShAr6KMms"
              },
              "href": "https://api.spotify.com/v1/artists/1HY2Jd0NmPuamShAr6KMms",
              "id": "1HY2Jd0NmPuamShAr6KMms",
              "name": "Lady Gaga",
              "type": "artist",
              "uri": "spotify:artist:1HY2Jd0NmPuamShAr6KMms"
            }
          ],
          "available_markets": [
            "CA",
            "US"
          ],
          "external_urls": {
            "spotify": "https://open.spotify.com/album/4yHr095BMG5I3IRH4ToE5l"
          },
          "href": "https://api.spotify.com/v1/albums/4yHr095BMG5I3IRH4ToE5l",
          "id": "4yHr095BMG5I3IRH4ToE5l",
          "images": [
            {
              "height": 640,
              "url": "https://i.scdn.co/image/09f74537afef05a012f912a6531cb7707cdf166e",
              "width": 640
            },
            {
              "height": 300,
              "url": "https://i.scdn.co/image/10b76e6b992fd32846c6de9f7416f682f83ad6db",
              "width": 300
            },
            {
              "height": 64,
              "url": "https://i.scdn.co/image/d960d5cb9c83c4836eb39184ee7c8a00952e7b0d",
              "width": 64
            }
          ],
          "name": "The Fame Monster (Deluxe)",
          "release_date": "2009-01-01",
          "release_date_precision": "day",
          "total_tracks": 22,
          "type": "album",
          "uri": "spotify:album:4yHr095BMG5I3IRH4ToE5l"
        },
        "artists": [
          {
            "external_urls": {
              "spotify": "https://open.spotify.com/artist/1HY2Jd0NmPuamShAr6KMms"
            },
            "href": "https://api.spotify.com/v1/artists/1HY2Jd0NmPuamShAr6KMms",
            "id": "1HY2Jd0NmPuamShAr6KMms",
            "name": "Lady Gaga",
            "type": "artist",
            "uri": "spotify:artist:1HY2Jd0NmPuamShAr6KMms"
          },
          {
            "external_urls": {
              "spotify": "https://open.spotify.com/artist/6vWDO969PvNqNYHIOW5v0m"
            },
            "href": "https://api.spotify.com/v1/artists/6vWDO969PvNqNYHIOW5v0m",
            "id": "6vWDO969PvNqNYHIOW5v0m",
            "name": "Beyoncé",
            "type": "artist",
            "uri": "spotify:artist:6vWDO969PvNqNYHIOW5v0m"
          }
        ],
        "available_markets": [
          "CA",
          "US"
        ],
        "disc_number": 1,
        "duration_ms": 220626,
        "explicit": false,
        "external_ids": {
          "isrc": "USUM70905541"
        },
        "external_urls": {
          "spotify": "https://open.spotify.com/track/1Sl4WkY1bLzNblPDWYFDc3"
        },
        "href": "https://api.spotify.com/v1/tracks/1Sl4WkY1bLzNblPDWYFDc3",
        "id": "1Sl4WkY1bLzNblPDWYFDc3",
        "is_local": false,
        "name": "Telephone",
        "popularity": 50,
        "preview_url": null,
        "track_number": 6,
        "type": "track",
        "uri": "spotify:track:1Sl4WkY1bLzNblPDWYFDc3"
      },
      {
        "album": {
          "album_type": "single",
          "artists": [
            {
              "external_urls": {
                "spotify": "https://open.spotify.com/artist/1Q33Sd9px79c7lWMbQXwxm"
              },
              "href": "https://api.spotify.com/v1/artists/1Q33Sd9px79c7lWMbQXwxm",
              "id": "1Q33Sd9px79c7lWMbQXwxm",
              "name": "The Flying Stars Of Brooklyn NY",
              "type": "artist",
              "uri": "spotify:artist:1Q33Sd9px79c7lWMbQXwxm"
            }
          ],
          "available_markets": [
            "AD",
            "AE",
            "AR",
            "AT",
            "AU",
            "BE",
            "BG",
            "BH",
            "BO",
            "BR",
            "CA",
            "CH",
            "CL",
            "CO",
            "CR",
            "CY",
            "CZ",
            "DE",
            "DK",
            "DO",
            "DZ",
            "EC",
            "EE",
            "EG",
            "ES",
            "FI",
            "FR",
            "GB",
            "GR",
            "GT",
            "HK",
            "HN",
            "HU",
            "ID",
            "IE",
            "IL",
            "IS",
            "IT",
            "JO",
            "JP",
            "KW",
            "LB",
            "LI",
            "LT",
            "LU",
            "LV",
            "MA",
            "MC",
            "MT",
            "MX",
            "MY",
            "NI",
            "NL",
            "NO",
            "NZ",
            "OM",
            "PA",
            "PE",
            "PH",
            "PL",
            "PS",
            "PT",
            "PY",
            "QA",
            "RO",
            "SA",
            "SE",
            "SG",
            "SK",
            "SV",
            "TH",
            "TN",
            "TR",
            "TW",
            "US",
            "UY",
            "VN",
            "ZA"
          ],
          "external_urls": {
            "spotify": "https://open.spotify.com/album/1mUZg3cuUcwifewwTCewbM"
          },
          "href": "https://api.spotify.com/v1/albums/1mUZg3cuUcwifewwTCewbM",
          "id": "1mUZg3cuUcwifewwTCewbM",
          "images": [
            {
              "height": 640,
              "url": "https://i.scdn.co/image/7f159ad38b7b6fca56245c06be070c98c61acde4",
              "width": 640
            },
            {
              "height": 300,
              "url": "https://i.scdn.co/image/46be11ed4660a5783b6273f27606a6d8967dda5c",
              "width": 300
            },
            {
              "height": 64,
              "url": "https://i.scdn.co/image/755d01c0f1fab22e2e302a36fb4e41dac604fe07",
              "width": 64
            }
          ],
          "name": "My God Has a Telephone",
          "release_date": "2017-10-20",
          "release_date_precision": "day",
          "total_tracks": 2,
          "type": "album",
          "uri": "spotify:album:1mUZg3cuUcwifewwTCewbM"
        },
        "artists": [
          {
            "external_urls": {
              "spotify": "https://open.spotify.com/artist/1Q33Sd9px79c7lWMbQXwxm"
            },
            "href": "https://api.spotify.com/v1/artists/1Q33Sd9px79c7lWMbQXwxm",
            "id": "1Q33Sd9px79c7lWMbQXwxm",
            "name": "The Flying Stars Of Brooklyn NY",
            "type": "artist",
            "uri": "spotify:artist:1Q33Sd9px79c7lWMbQXwxm"
          }
        ],
        "available_markets": [
          "AD",
          "AE",
          "AR",
          "AT",
          "AU",
          "BE",
          "BG",
          "BH",
          "BO",
          "BR",
          "CA",
          "CH",
          "CL",
          "CO",
          "CR",
          "CY",
          "CZ",
          "DE",
          "DK",
          "DO",
          "DZ",
          "EC",
          "EE",
          "EG",
          "ES",
          "FI",
          "FR",
          "GB",
          "GR",
          "GT",
          "HK",
          "HN",
          "HU",
          "ID",
          "IE",
          "IL",
          "IS",
          "IT",
          "JO",
          "JP",
          "KW",
          "LB",
          "LI",
          "LT",
          "LU",
          "LV",
          "MA",
          "MC",
          "MT",
          "MX",
          "MY",
          "NI",
          "NL",
          "NO",
          "NZ",
          "OM",
          "PA",
          "PE",
          "PH",
          "PL",
          "PS",
          "PT",
          "PY",
          "QA",
          "RO",
          "SA",
          "SE",
          "SG",
          "SK",
          "SV",
          "TH",
          "TN",
          "TR",
          "TW",
          "US",
          "UY",
          "VN",
          "ZA"
        ],
        "disc_number": 1,
        "duration_ms": 175492,
        "explicit": false,
        "external_ids": {
          "isrc": "QM6P41757895"
        },
        "external_urls": {
          "spotify": "https://open.spotify.com/track/0Njsdm3fZvEqAveqcgDISP"
        },
        "href": "https://api.spotify.com/v1/tracks/0Njsdm3fZvEqAveqcgDISP",
        "id": "0Njsdm3fZvEqAveqcgDISP",
        "is_local": false,
        "name": "My God Has A Telephone",
        "popularity": 59,
        "preview_url": "https://p.scdn.co/mp3-preview/4ca584e7a2196967d834fd10181c3b80832a3461?cid=a9f31b5d964247a8a2b5324a6c013e72",
        "track_number": 1,
        "type": "track",
        "uri": "spotify:track:0Njsdm3fZvEqAveqcgDISP"
      }
    ],
    "limit": 5,
    "next": "https://api.spotify.com/v1/search?query=Telephone&type=track&offset=5&limit=5",
    "offset": 0,
    "previous": null,
    "total": 10851
  }
}